Add Logging to Functions • chronicler
…
Let’s compare the input and the output to r_filter(sex != "male"):

# The following line generates a data frame with columns `ops_number`, `function` and `diff_obj`
# it is possible to filter on the step of interest using the `ops_number` or the `function` column
diff_pipe <- check_diff(output_pipe)

diff_pipe %>%
  filter(`function` == "filter") %>%  # <- backticks around `function` are required
  pull(diff_obj)
#> [[1]]
#> < input                                 
#> > output                                
#> @@ 1,15 / 1,15 @@                       
#> < # A tibble: 87 × 4                    
#> > # A tibble: 23 × 4                    
#> < # Groups:   species, sex [41]         
#> > # Groups:   species, sex [9]          
#>      height  mass species sex           
#>       <int> <dbl> <chr>   <chr>         
#> <  1    172    77 Human   male          
#>    2    167    75 Droid   none          
#>    3     96    32 Droid   none          
#> <  4    202   136 Human   male          
#>    5    150    49 Human   female        
#> <  6    178   120 Human   male          
#>    7    165    75 Human   female        
#>    8     97    32 Droid   none          
#> >  6    175  1358 Hutt    hermaphroditic
#> >  7    200   140 Droid   none          
#> <  9    183    84 Human   male          
#> >  8    150    NA Human   female        
#> < 10    182    77 Human   male          
#> >  9    163    NA Human   female        
#> > 10    178    55 Twi'lek female        
#> < # … with 77 more rows                 
#> > # … with 13 more rows
…
