A real world example • chronicler
…
avia_monthly is an object of class chronicle, but in essence, it is just a list, with its own print method:

avia_monthly
#> OK! Value computed successfully:
#> ---------------
#> Just
#> # A tibble: 7,632 × 3
#>    destination     date       passengers
#>    <chr>           <date>     <chr>     
#>  1 LU_ELLX_AT_LOWW 2018-03-01 3967      
#>  2 LU_ELLX_AT_LOWW 2018-02-01 3232      
#>  3 LU_ELLX_AT_LOWW 2018-01-01 3701      
#>  4 LU_ELLX_AT_LOWW 2017-12-01 4249      
#>  5 LU_ELLX_AT_LOWW 2017-11-01 4311      
#>  6 LU_ELLX_AT_LOWW 2017-10-01 4591      
#>  7 LU_ELLX_AT_LOWW 2017-09-01 4816      
#>  8 LU_ELLX_AT_LOWW 2017-08-01 4399      
#>  9 LU_ELLX_AT_LOWW 2017-07-01 4277      
#> 10 LU_ELLX_AT_LOWW 2017-06-01 4674      
#> # … with 7,622 more rows
…
This is especially useful if the object avia_monthly gets saved using saveRDS(). People that then read this object, can read the log to know what happened and reproduce the steps if necessary.

Let’s take a look at the final data set:

avia_monthly %>%
  pick("value")
#> # A tibble: 7,632 × 3
#>    destination     date       passengers
#>    <chr>           <date>     <chr>     
#>  1 LU_ELLX_AT_LOWW 2018-03-01 3967      
#>  2 LU_ELLX_AT_LOWW 2018-02-01 3232      
#>  3 LU_ELLX_AT_LOWW 2018-01-01 3701      
#>  4 LU_ELLX_AT_LOWW 2017-12-01 4249      
#>  5 LU_ELLX_AT_LOWW 2017-11-01 4311      
#>  6 LU_ELLX_AT_LOWW 2017-10-01 4591      
#>  7 LU_ELLX_AT_LOWW 2017-09-01 4816      
#>  8 LU_ELLX_AT_LOWW 2017-08-01 4399      
#>  9 LU_ELLX_AT_LOWW 2017-07-01 4277      
#> 10 LU_ELLX_AT_LOWW 2017-06-01 4674      
#> # … with 7,622 more rows
…
