A real world example • chronicler
…
Let’s take a look at the data:

avia_clean
#> OK! Value computed successfully:
#> ---------------
#> Just
#> # A tibble: 464,616 × 6
#>    freq  unit   tra_meas `air_pr\\time`  date    passengers
#>    <chr> <chr>  <chr>    <chr>           <chr>   <chr>     
#>  1 M     FLIGHT CAF_PAS  LU_ELLX_AT_LOWW 2000    :         
#>  2 M     FLIGHT CAF_PAS  LU_ELLX_AT_LOWW 2001    :         
#>  3 M     FLIGHT CAF_PAS  LU_ELLX_AT_LOWW 2002    :         
#>  4 M     FLIGHT CAF_PAS  LU_ELLX_AT_LOWW 2003    :         
#>  5 M     FLIGHT CAF_PAS  LU_ELLX_AT_LOWW 2004    :         
#>  6 M     FLIGHT CAF_PAS  LU_ELLX_AT_LOWW 2005    :         
#>  7 M     FLIGHT CAF_PAS  LU_ELLX_AT_LOWW 2005-01 143       
#>  8 M     FLIGHT CAF_PAS  LU_ELLX_AT_LOWW 2005-02 134       
#>  9 M     FLIGHT CAF_PAS  LU_ELLX_AT_LOWW 2005-03 154       
#> 10 M     FLIGHT CAF_PAS  LU_ELLX_AT_LOWW 2005-04 142       
#> # ℹ 464,606 more rows
…
As you can see, the warnings get printed, they’re not captured. We
can now take a look at the data and see that ":" characters
where successfully replaced by NAs:

avia_clean2
#> OK! Value computed successfully:
#> ---------------
#> Just
#> # A tibble: 464,616 × 6
#>    freq  unit   tra_meas `air_pr\\time`  date    passengers
#>    <chr> <chr>  <chr>    <chr>           <chr>        <dbl>
#>  1 M     FLIGHT CAF_PAS  LU_ELLX_AT_LOWW 2000            NA
#>  2 M     FLIGHT CAF_PAS  LU_ELLX_AT_LOWW 2001            NA
#>  3 M     FLIGHT CAF_PAS  LU_ELLX_AT_LOWW 2002            NA
#>  4 M     FLIGHT CAF_PAS  LU_ELLX_AT_LOWW 2003            NA
#>  5 M     FLIGHT CAF_PAS  LU_ELLX_AT_LOWW 2004            NA
#>  6 M     FLIGHT CAF_PAS  LU_ELLX_AT_LOWW 2005            NA
#>  7 M     FLIGHT CAF_PAS  LU_ELLX_AT_LOWW 2005-01        143
#>  8 M     FLIGHT CAF_PAS  LU_ELLX_AT_LOWW 2005-02        134
#>  9 M     FLIGHT CAF_PAS  LU_ELLX_AT_LOWW 2005-03        154
#> 10 M     FLIGHT CAF_PAS  LU_ELLX_AT_LOWW 2005-04        142
#> # ℹ 464,606 more rows
…
To make sure I only have monthly data, I can count the values of the
date column using dplyr::count(). But because
avia_monthly is not a data frame, but a
chronicle I need to record() the
dplyr::count() function. But because I only need it this
once, I could instead use fmap_record(), which makes it
possible to apply an undecorated function to a chronicle
object:

fmap_record(avia_monthly, count, date)
#> OK! Value computed successfully:
#> ---------------
#> Just
#> # A tibble: 226 × 2
#>    date           n
#>    <date>     <int>
#>  1 2005-01-01    23
#>  2 2005-02-01    23
#>  3 2005-03-01    23
#>  4 2005-04-01    24
#>  5 2005-05-01    24
#>  6 2005-06-01    24
#>  7 2005-07-01    24
#>  8 2005-08-01    24
#>  9 2005-09-01    24
#> 10 2005-10-01    24
#> # ℹ 216 more rows
#> 
#> ---------------
#> This is an object of type `chronicle`.
#> Retrieve the value of this object with unveil(.c, "value").
#> To read the log of this object, call read_log(.c).

avia_monthly is an object of class
chronicle, but in essence, it is just a list, with its own
print method:

avia_monthly
#> OK! Value computed successfully:
#> ---------------
#> Just
#> # A tibble: 6,643 × 3
#>    destination     date       passengers
#>    <chr>           <date>          <dbl>
#>  1 LU_ELLX_AT_LOWW 2005-01-01       1758
#>  2 LU_ELLX_AT_LOWW 2005-02-01       1843
#>  3 LU_ELLX_AT_LOWW 2005-03-01       2129
#>  4 LU_ELLX_AT_LOWW 2005-04-01       2332
#>  5 LU_ELLX_AT_LOWW 2005-05-01       2402
#>  6 LU_ELLX_AT_LOWW 2005-06-01       2475
#>  7 LU_ELLX_AT_LOWW 2005-07-01       2082
#>  8 LU_ELLX_AT_LOWW 2005-08-01       2175
#>  9 LU_ELLX_AT_LOWW 2005-09-01       2288
#> 10 LU_ELLX_AT_LOWW 2005-10-01       2296
#> # ℹ 6,633 more rows
…
This is especially useful if the object avia_monthly
gets saved using saveRDS(). People can then read this
object, can read the log to know what happened and reproduce the steps
if necessary.

Let’s take a look at the final data set:

avia_monthly %>%
  unveil("value")
#> # A tibble: 6,643 × 3
#>    destination     date       passengers
#>    <chr>           <date>          <dbl>
#>  1 LU_ELLX_AT_LOWW 2005-01-01       1758
#>  2 LU_ELLX_AT_LOWW 2005-02-01       1843
#>  3 LU_ELLX_AT_LOWW 2005-03-01       2129
#>  4 LU_ELLX_AT_LOWW 2005-04-01       2332
#>  5 LU_ELLX_AT_LOWW 2005-05-01       2402
#>  6 LU_ELLX_AT_LOWW 2005-06-01       2475
#>  7 LU_ELLX_AT_LOWW 2005-07-01       2082
#>  8 LU_ELLX_AT_LOWW 2005-08-01       2175
#>  9 LU_ELLX_AT_LOWW 2005-09-01       2288
#> 10 LU_ELLX_AT_LOWW 2005-10-01       2296
#> # ℹ 6,633 more rows
…
